com/moneytransfer/service/exception/DoesNotExistException.class
com/moneytransfer/service/exception/AccountCreateException.class
com/moneytransfer/service/transaction/TransactionService.class
com/moneytransfer/service/person/PersonService.class
com/moneytransfer/service/account/AccountService.class
com/moneytransfer/service/exception/MoneyTransactionException.class
