/Users/stu/IdeaProjects/moneytransfer/moneytransfer-repository/src/test/java/com/moneytransfer/repository/person/PersonRepositoryTest.java
/Users/stu/IdeaProjects/moneytransfer/moneytransfer-repository/src/test/java/com/moneytransfer/repository/transaction/TransactionRepositoryTest.java
/Users/stu/IdeaProjects/moneytransfer/moneytransfer-repository/src/test/java/com/moneytransfer/repository/account/AccountRepositoryTest.java
/Users/stu/IdeaProjects/moneytransfer/moneytransfer-repository/src/test/java/com/moneytransfer/repository/RepositoryTestHelper.java
