com/moneytransfer/domain/Transaction$TransactionBuilder.class
com/moneytransfer/domain/Account$AccountBuilder.class
com/moneytransfer/domain/Person.class
com/moneytransfer/domain/Account.class
com/moneytransfer/domain/TransactionType.class
com/moneytransfer/domain/Person$PersonBuilder.class
com/moneytransfer/domain/Transaction.class
