-------------------------------------------------------------------------------
Test set: com.moneytransfer.repository.person.PersonRepositoryTest
-------------------------------------------------------------------------------
Tests run: 1, Failures: 0, Errors: 0, Skipped: 0, Time elapsed: 0.116 sec
